<svg width="90" height="90" viewBox="0 0 90 90" fill="none" xmlns="http://www.w3.org/2000/svg">
<path d="M89.2112 10.6793L69.7112 0.17925C69.4926 0.0615713 69.2482 -1.95685e-05 69 4.66368e-09H64.5C64.2518 -1.95685e-05 64.0074 0.0615713 63.7888 0.17925L45 10.2964L26.2112 0.17925C25.9926 0.0615713 25.7482 -1.95685e-05 25.5 4.66368e-09H21C20.7518 -1.95685e-05 20.5074 0.0615713 20.2888 0.17925L0.788813 10.6793C0.550336 10.8077 0.351081 10.9983 0.212198 11.2308C0.0733159 11.4633 -1.14983e-05 11.7291 1.35238e-09 12V19.5C-1.10183e-05 19.7595 0.0673225 20.0146 0.195419 20.2404C0.323515 20.4661 0.50799 20.6547 0.730811 20.7878C0.953632 20.9209 1.20718 20.9939 1.46665 20.9997C1.72613 21.0055 1.98267 20.9438 2.21119 20.8207L21.3782 10.5H25.1218L43.5 20.3961V87H3V24H1.35238e-09V88.5C1.35238e-09 88.8978 0.158035 89.2794 0.43934 89.5607C0.720644 89.842 1.10218 90 1.5 90H88.5C88.8978 90 89.2794 89.842 89.5607 89.5607C89.842 89.2794 90 88.8978 90 88.5V79.5H87V87H46.5V20.3961L64.8782 10.5H68.6218L87 20.3961V76.5H90V12C90 11.7291 89.9267 11.4633 89.7878 11.2308C89.6489 10.9983 89.4497 10.8077 89.2112 10.6793ZM43.5 16.9886L26.2112 7.67925C25.9926 7.56157 25.7482 7.49998 25.5 7.5H21C20.7518 7.49998 20.5074 7.56157 20.2888 7.67925L3 16.9886V12.8959L21.3782 3H25.1218L43.5 12.8959V16.9886ZM87 16.9886L69.7112 7.67925C69.4926 7.56157 69.2482 7.49998 69 7.5H64.5C64.2518 7.49998 64.0074 7.56157 63.7888 7.67925L46.5 16.9886V12.8959L64.8782 3H68.6218L87 12.8959V16.9886ZM7.5 31.5V45C7.50134 46.1931 7.97588 47.3369 8.8195 48.1805C9.66312 49.0241 10.8069 49.4987 12 49.5H34.5C35.6931 49.4987 36.8369 49.0241 37.6805 48.1805C38.5241 47.3369 38.9987 46.1931 39 45V25.5C38.9987 24.3069 38.5241 23.1631 37.6805 22.3195C36.8369 21.4759 35.6931 21.0013 34.5 21H12C10.8069 21.0013 9.66312 21.4759 8.8195 22.3195C7.97588 23.1631 7.50134 24.3069 7.5 25.5V28.5H10.5V25.5C10.5004 25.1023 10.6586 24.721 10.9398 24.4398C11.221 24.1586 11.6023 24.0004 12 24H34.5C34.8977 24.0004 35.279 24.1586 35.5602 24.4398C35.8414 24.721 35.9996 25.1023 36 25.5V45C35.9996 45.3977 35.8414 45.779 35.5602 46.0602C35.279 46.3414 34.8977 46.4996 34.5 46.5H32.1937C32.7229 45.5888 33.001 44.5537 33 43.5V36H30V43.5C29.9993 44.0259 29.8603 44.5424 29.5971 44.9977C29.3338 45.453 28.9555 45.8311 28.5 46.0941V43.2041C28.502 41.1444 27.8922 39.1305 26.748 37.4179C25.933 36.1978 25.4986 34.7631 25.5 33.2959V30C25.5 29.7443 25.4346 29.4929 25.3101 29.2696C25.1856 29.0462 25.0061 28.8585 24.7885 28.724C24.571 28.5896 24.3228 28.513 24.0674 28.5016C23.8119 28.4901 23.5578 28.5441 23.3291 28.6584L20.6458 30H18.3542L15.6709 28.6584C15.4422 28.5441 15.1881 28.4901 14.9326 28.5016C14.6772 28.513 14.429 28.5896 14.2115 28.724C13.9939 28.8585 13.8144 29.0462 13.6899 29.2696C13.5654 29.4929 13.5 29.7443 13.5 30V46.5H12C11.6023 46.4996 11.221 46.3414 10.9398 46.0602C10.6586 45.779 10.5004 45.3977 10.5 45V31.5H7.5ZM16.5 32.427L17.3291 32.8416C17.5374 32.9458 17.7671 33 18 33H21C21.2329 33 21.4626 32.9458 21.6709 32.8416L22.5 32.427V33.2959C22.498 35.3556 23.1078 37.3695 24.252 39.0821C25.067 40.3022 25.5014 41.7369 25.5 43.2041V46.5H22.5V42H19.5V46.5H16.5V32.427ZM7.5 64.5V78C7.50134 79.1931 7.97588 80.3369 8.8195 81.1805C9.66312 82.0241 10.8069 82.4987 12 82.5H34.5C35.6931 82.4987 36.8369 82.0241 37.6805 81.1805C38.5241 80.3369 38.9987 79.1931 39 78V58.5C38.9987 57.3069 38.5241 56.1631 37.6805 55.3195C36.8369 54.4759 35.6931 54.0013 34.5 54H12C10.8069 54.0013 9.66312 54.4759 8.8195 55.3195C7.97588 56.1631 7.50134 57.3069 7.5 58.5V61.5H10.5V58.5C10.5004 58.1023 10.6586 57.721 10.9398 57.4398C11.221 57.1586 11.6023 57.0004 12 57H34.5C34.8977 57.0004 35.279 57.1586 35.5602 57.4398C35.8414 57.721 35.9996 58.1023 36 58.5V66H27.6212L25.2328 63.6114L25.1833 63.5122C24.6587 62.4543 23.8482 61.5645 22.8437 60.9437C21.8392 60.3229 20.6809 59.996 19.5 60C19.1022 60 18.7206 60.158 18.4393 60.4393C18.158 60.7206 18 61.1022 18 61.5V63.4189L14.5256 64.5769C14.2269 64.6764 13.9672 64.8675 13.7831 65.1229C13.599 65.3783 13.5 65.6852 13.5 66V70.5C13.5 70.8978 13.658 71.2794 13.9393 71.5607C14.2206 71.842 14.6022 72 15 72H19.5V79.5H12C11.6023 79.4995 11.221 79.3414 10.9398 79.0602C10.6586 78.779 10.5004 78.3977 10.5 78V64.5H7.5ZM36 78C35.9996 78.3977 35.8414 78.779 35.5602 79.0602C35.279 79.3414 34.8977 79.4995 34.5 79.5H28.5V76.5H36V78ZM16.5 69V67.0811L19.9744 65.9231C20.2731 65.8236 20.5328 65.6325 20.7169 65.3771C20.901 65.1217 21 64.8148 21 64.5V63.3506C21.6502 63.6754 22.1768 64.2032 22.5 64.8542L22.6584 65.1709C22.7306 65.3151 22.8256 65.4467 22.9397 65.5607L25.9397 68.5607C26.2209 68.8419 26.6023 68.9999 27 69H36V73.5H27C26.6022 73.5 26.2206 73.658 25.9393 73.9393C25.658 74.2206 25.5 74.6022 25.5 75V79.5H22.5V70.5C22.5 70.1022 22.342 69.7206 22.0607 69.4393C21.7794 69.158 21.3978 69 21 69H16.5ZM82.5 25.5C82.4987 24.3069 82.0241 23.1631 81.1805 22.3195C80.3369 21.4759 79.1931 21.0013 78 21H55.5C54.3069 21.0013 53.1631 21.4759 52.3195 22.3195C51.4759 23.1631 51.0013 24.3069 51 25.5V28.5H54V25.5C54.0004 25.1023 54.1586 24.721 54.4398 24.4398C54.721 24.1586 55.1023 24.0004 55.5 24H78C78.3977 24.0004 78.779 24.1586 79.0602 24.4398C79.3414 24.721 79.4995 25.1023 79.5 25.5V45C79.4995 45.3977 79.3414 45.779 79.0602 46.0602C78.779 46.3414 78.3977 46.4996 78 46.5H76.5V45.8925C76.5016 44.7536 76.2619 43.6272 75.7968 42.5876C75.3316 41.5481 74.6515 40.6188 73.8012 39.8611C72.9509 39.1033 71.9498 38.5343 70.8637 38.1915C69.7776 37.8486 68.6312 37.7397 67.5 37.872V36C67.5 35.7443 67.4346 35.4929 67.3101 35.2696C67.1856 35.0462 67.0061 34.8585 66.7886 34.724C66.571 34.5896 66.3228 34.513 66.0674 34.5016C65.8119 34.4901 65.5578 34.5441 65.3291 34.6584L62.6458 36H61.8542L59.1709 34.6584C58.9422 34.5441 58.6881 34.4901 58.4326 34.5016C58.1772 34.513 57.929 34.5896 57.7114 34.724C57.4939 34.8585 57.3144 35.0462 57.1899 35.2696C57.0654 35.4929 57 35.7443 57 36V40.5C56.9998 41.1326 57.1334 41.7581 57.3919 42.3355C57.6504 42.9129 58.028 43.4292 58.5 43.8504V46.5H55.5C55.1023 46.4996 54.721 46.3414 54.4398 46.0602C54.1586 45.779 54.0004 45.3977 54 45V31.5H51V45C51.0013 46.1931 51.4759 47.3369 52.3195 48.1805C53.1631 49.0241 54.3069 49.4987 55.5 49.5H78C79.1931 49.4987 80.3369 49.0241 81.1805 48.1805C82.0241 47.3369 82.4987 46.1931 82.5 45V25.5ZM60 40.5V38.427L60.8291 38.8416C61.0374 38.9458 61.2671 39 61.5 39H63C63.2329 39 63.4626 38.9458 63.6709 38.8416L64.5 38.427V40.5C64.4995 40.8977 64.3414 41.279 64.0602 41.5602C63.779 41.8414 63.3977 41.9996 63 42H61.5C61.1023 41.9996 60.721 41.8414 60.4398 41.5602C60.1586 41.279 60.0004 40.8977 60 40.5ZM73.5 46.5H61.5V45H63C64.1228 44.9986 65.2046 44.5781 66.0335 43.8208C66.8624 43.0635 67.3787 42.024 67.4812 40.9059C68.2148 40.767 68.9699 40.7915 69.6928 40.978C70.4157 41.1644 71.0886 41.508 71.6635 41.9843C72.2383 42.4607 72.701 43.058 73.0184 43.7337C73.3359 44.4094 73.5003 45.1469 73.5 45.8934V46.5ZM51 64.5V78C51.0013 79.1931 51.4759 80.3369 52.3195 81.1805C53.1631 82.0241 54.3069 82.4987 55.5 82.5H78C79.1931 82.4987 80.3369 82.0241 81.1805 81.1805C82.0241 80.3369 82.4987 79.1931 82.5 78V58.5C82.4987 57.3069 82.0241 56.1631 81.1805 55.3195C80.3369 54.4759 79.1931 54.0013 78 54H55.5C54.3069 54.0013 53.1631 54.4759 52.3195 55.3195C51.4759 56.1631 51.0013 57.3069 51 58.5V61.5H54V58.5C54.0004 58.1023 54.1586 57.721 54.4398 57.4398C54.721 57.1586 55.1023 57.0004 55.5 57H78C78.3977 57.0004 78.779 57.1586 79.0602 57.4398C79.3414 57.721 79.4995 58.1023 79.5 58.5V66.2297C78.0924 65.1082 76.3456 64.4983 74.5459 64.5H66C65.7671 64.5 65.5374 64.5542 65.3291 64.6584L60.2766 67.1846C59.358 66.4162 58.1976 65.9967 57 66C56.6022 66 56.2206 66.158 55.9393 66.4393C55.658 66.7206 55.5 67.1022 55.5 67.5V69.6973L54 70.6973V64.5H51ZM57.8319 71.748C58.0374 71.611 58.2059 71.4255 58.3224 71.2078C58.439 70.9901 58.5 70.7469 58.5 70.5V69.6214L58.9395 70.0607C59.1621 70.2833 59.4491 70.4303 59.7598 70.4808C60.0705 70.5312 60.3893 70.4827 60.6709 70.3419L66.3542 67.5H74.5459C75.8598 67.5001 77.1199 68.022 78.0489 68.9511C78.978 69.8801 79.4999 71.1402 79.5 72.4541V78C79.4995 78.3977 79.3414 78.779 79.0602 79.0602C78.779 79.3414 78.3977 79.4995 78 79.5H69V78.6623C68.9997 78.3474 69.0986 78.0404 69.2827 77.7849C69.4668 77.5295 69.7268 77.3386 70.0256 77.2393L72.4744 76.4231C72.7731 76.3236 73.0328 76.1325 73.2169 75.8771C73.401 75.6217 73.5 75.3148 73.5 75C73.4979 74.3766 73.6705 73.7651 73.9983 73.2349C74.326 72.7046 74.7958 72.2768 75.3544 72L75.6711 71.8416L74.3289 69.1584L74.0126 69.3167C73.1244 69.7567 72.3523 70.3998 71.7588 71.1937C71.1653 71.9876 70.7671 72.9102 70.5964 73.8866L69.0776 74.3929C69.0514 74.4017 69.0264 74.4128 69.0006 74.4219V72H66V79.5H60V78.6623C59.9997 78.3474 60.0986 78.0404 60.2827 77.7849C60.4668 77.5295 60.7268 77.3386 61.0256 77.2393L63.4744 76.4231L62.5256 73.5769L60.0771 74.3932C59.1806 74.6912 58.4008 75.264 57.8484 76.0303C57.296 76.7967 56.9992 77.7176 57 78.6623V79.5H55.5C55.1023 79.4995 54.721 79.3414 54.4398 79.0602C54.1586 78.779 54.0004 78.3977 54 78V74.3027L57.8319 71.748Z" fill="#363636"/>
</svg>
