<svg width="161" height="9" viewBox="0 0 161 9" fill="none" xmlns="http://www.w3.org/2000/svg">
<path d="M160.354 4.85354C160.549 4.65828 160.549 4.34169 160.354 4.14643L157.172 0.964452C156.976 0.76919 156.66 0.76919 156.464 0.964452C156.269 1.15971 156.269 1.4763 156.464 1.67156L159.293 4.49999L156.464 7.32841C156.269 7.52368 156.269 7.84026 156.464 8.03552C156.66 8.23078 156.976 8.23078 157.172 8.03552L160.354 4.85354ZM4.37114e-08 5L160 4.99999L160 3.99999L-4.37114e-08 4L4.37114e-08 5Z" fill="#363636"/>
</svg>
